<?xml version="1.0" encoding="UTF-8" standalone="no"?>
<!-- Created with Inkscape (http://www.inkscape.org/) -->

<svg
   xmlns:dc="http://purl.org/dc/elements/1.1/"
   xmlns:cc="http://creativecommons.org/ns#"
   xmlns:rdf="http://www.w3.org/1999/02/22-rdf-syntax-ns#"
   xmlns:svg="http://www.w3.org/2000/svg"
   xmlns="http://www.w3.org/2000/svg"
   xmlns:sodipodi="http://sodipodi.sourceforge.net/DTD/sodipodi-0.dtd"
   xmlns:inkscape="http://www.inkscape.org/namespaces/inkscape"
   width="43.10228mm"
   height="20.693951mm"
   viewBox="0 0 43.10228 20.693951"
   version="1.1"
   id="svg8"
   inkscape:version="0.92.3 (2405546, 2018-03-11)"
   sodipodi:docname="LogoHenri.svg">
  <defs
     id="defs2" />
  <sodipodi:namedview
     id="base"
     pagecolor="#ffffff"
     bordercolor="#666666"
     borderopacity="1.0"
     inkscape:pageopacity="0.0"
     inkscape:pageshadow="2"
     inkscape:zoom="1.4"
     inkscape:cx="117.20376"
     inkscape:cy="-33.763186"
     inkscape:document-units="mm"
     inkscape:current-layer="layer3"
     showgrid="true"
     inkscape:window-width="1536"
     inkscape:window-height="801"
     inkscape:window-x="-8"
     inkscape:window-y="-8"
     inkscape:window-maximized="1"
     fit-margin-top="0"
     fit-margin-left="0"
     fit-margin-right="0"
     fit-margin-bottom="0"
     showguides="false"
     inkscape:snap-global="false">
    <inkscape:grid
       type="xygrid"
       id="grid1469"
       originx="-23.366489"
       originy="3.0000001e-005" />
  </sodipodi:namedview>
  <metadata
     id="metadata5">
    <rdf:RDF>
      <cc:Work
         rdf:about="">
        <dc:format>image/svg+xml</dc:format>
        <dc:type
           rdf:resource="http://purl.org/dc/dcmitype/StillImage" />
        <dc:title></dc:title>
      </cc:Work>
    </rdf:RDF>
  </metadata>
  <g
     inkscape:groupmode="layer"
     id="layer3"
     inkscape:label="Henri"
     style="display:inline"
     transform="translate(-23.366488,-189.30608)">
    <text
       xml:space="preserve"
       style="font-style:normal;font-variant:normal;font-weight:normal;font-stretch:normal;font-size:10.58333302px;line-height:1.25;font-family:'Source Code Pro';-inkscape-font-specification:'Source Code Pro, Normal';font-variant-ligatures:normal;font-variant-caps:normal;font-variant-numeric:normal;font-feature-settings:normal;text-align:start;letter-spacing:0px;word-spacing:0px;writing-mode:lr-tb;text-anchor:start;fill:#000000;fill-opacity:1;stroke:none;stroke-width:0.26458332"
       x="14.03165"
       y="172.71591"
       id="text1418"><tspan
         sodipodi:role="line"
         id="tspan1420"
         x="14.03165"
         y="181.97633" /></text>
    <text
       xml:space="preserve"
       style="font-style:normal;font-variant:normal;font-weight:normal;font-stretch:normal;font-size:25.39999962px;line-height:1.25;font-family:'Source Code Pro';-inkscape-font-specification:'Source Code Pro, Normal';font-variant-ligatures:normal;font-variant-caps:normal;font-variant-numeric:normal;font-feature-settings:normal;text-align:start;letter-spacing:0px;word-spacing:0px;writing-mode:lr-tb;text-anchor:start;fill:#000000;fill-opacity:1;stroke:none;stroke-width:0.26458332"
       x="10.95805"
       y="166.30144"
       id="text1424"><tspan
         sodipodi:role="line"
         id="tspan1426"
         x="10.95805"
         y="188.52644" /></text>
    <g
       aria-label="H. Calixto"
       style="font-style:normal;font-weight:normal;font-size:10.58333302px;line-height:1.25;font-family:sans-serif;letter-spacing:0px;word-spacing:0px;fill:#000000;fill-opacity:1;stroke:none;stroke-width:0.26458332"
       id="text1440">
      <path
         d="m 23.514655,196.24875 v -6.94267 h 0.889 v 2.91042 h 2.899833 v -2.91042 h 0.889 v 6.94267 h -0.889 v -3.27025 h -2.899833 v 3.27025 z"
         style="font-style:normal;font-variant:normal;font-weight:normal;font-stretch:normal;font-size:10.58333302px;font-family:'Source Code Pro';-inkscape-font-specification:'Source Code Pro, Normal';font-variant-ligatures:normal;font-variant-caps:normal;font-variant-numeric:normal;font-feature-settings:normal;text-align:start;writing-mode:lr-tb;text-anchor:start;stroke-width:0.26458332"
         id="path5197"
         inkscape:connector-curvature="0" />
      <path
         d="m 32.199437,196.37575 q -0.359833,0 -0.613833,-0.24342 -0.243417,-0.24341 -0.243417,-0.64558 0,-0.40217 0.243417,-0.64558 0.254,-0.254 0.613833,-0.254 0.359834,0 0.60325,0.254 0.254,0.24341 0.254,0.64558 0,0.40217 -0.254,0.64558 -0.243416,0.24342 -0.60325,0.24342 z"
         style="font-style:normal;font-variant:normal;font-weight:normal;font-stretch:normal;font-size:10.58333302px;font-family:'Source Code Pro';-inkscape-font-specification:'Source Code Pro, Normal';font-variant-ligatures:normal;font-variant-caps:normal;font-variant-numeric:normal;font-feature-settings:normal;text-align:start;writing-mode:lr-tb;text-anchor:start;stroke-width:0.26458332"
         id="path5199"
         inkscape:connector-curvature="0" />
      <path
         d="m 26.393322,209.99999 q -0.645584,0 -1.195917,-0.24341 -0.550333,-0.24342 -0.963083,-0.6985 -0.402167,-0.46567 -0.635,-1.13242 -0.232834,-0.67733 -0.232834,-1.524 0,-0.83608 0.232834,-1.50283 0.232833,-0.66675 0.645583,-1.13242 0.41275,-0.46567 0.98425,-0.70908 0.5715,-0.254 1.248833,-0.254 0.624417,0 1.100667,0.254 0.486833,0.254 0.79375,0.59266 l -0.497417,0.56092 q -0.275166,-0.28575 -0.613833,-0.45508 -0.338667,-0.17992 -0.783167,-0.17992 -0.497416,0 -0.910166,0.20108 -0.402167,0.1905 -0.687917,0.56092 -0.28575,0.35983 -0.4445,0.87842 -0.15875,0.51858 -0.15875,1.16416 0,0.65617 0.15875,1.18534 0.15875,0.51858 0.4445,0.889 0.28575,0.37041 0.687917,0.5715 0.41275,0.20108 0.910166,0.20108 0.47625,0 0.846667,-0.20108 0.381,-0.20109 0.719667,-0.5715 l 0.497416,0.53975 q -0.41275,0.47625 -0.931333,0.74083 -0.518583,0.26458 -1.217083,0.26458 z"
         style="font-style:normal;font-variant:normal;font-weight:normal;font-stretch:normal;font-size:10.58333302px;font-family:'Source Code Pro';-inkscape-font-specification:'Source Code Pro, Normal';font-variant-ligatures:normal;font-variant-caps:normal;font-variant-numeric:normal;font-feature-settings:normal;text-align:start;writing-mode:lr-tb;text-anchor:start;stroke-width:0.26458332"
         id="path5201"
         inkscape:connector-curvature="0" />
      <path
         d="m 31.627937,209.99999 q -0.359833,0 -0.677333,-0.10583 -0.3175,-0.0952 -0.560917,-0.27517 -0.232833,-0.1905 -0.370416,-0.45508 -0.137584,-0.27517 -0.137584,-0.62442 0,-0.43391 0.201084,-0.75141 0.211666,-0.32809 0.656166,-0.56092 0.455084,-0.23283 1.164167,-0.381 0.709083,-0.14817 1.703917,-0.23283 -0.01058,-0.26459 -0.08467,-0.49742 -0.07408,-0.23283 -0.232833,-0.40217 -0.15875,-0.17991 -0.423334,-0.28575 -0.254,-0.10583 -0.624416,-0.10583 -0.508,0 -0.973667,0.20108 -0.465667,0.1905 -0.8255,0.41275 l -0.338667,-0.59266 q 0.1905,-0.127 0.4445,-0.254 0.264584,-0.13759 0.550334,-0.24342 0.296333,-0.10583 0.624416,-0.16933 0.328084,-0.0741 0.66675,-0.0741 1.058334,0 1.566334,0.58209 0.518583,0.5715 0.518583,1.53458 v 3.15383 h -0.709083 l -0.07408,-0.6985 h -0.03175 q -0.433916,0.33867 -0.963083,0.58209 -0.518583,0.24341 -1.068917,0.24341 z m 0.232834,-0.6985 q 0.4445,0 0.867833,-0.1905 0.433917,-0.20108 0.878417,-0.5715 v -1.35466 q -0.8255,0.0635 -1.386417,0.17991 -0.550333,0.11642 -0.889,0.28575 -0.328083,0.15875 -0.465667,0.37042 -0.137583,0.20108 -0.137583,0.45508 0,0.22225 0.09525,0.381 0.09525,0.14817 0.243417,0.254 0.15875,0.0953 0.359833,0.14817 0.211667,0.0423 0.433917,0.0423 z"
         style="font-style:normal;font-variant:normal;font-weight:normal;font-stretch:normal;font-size:10.58333302px;font-family:'Source Code Pro';-inkscape-font-specification:'Source Code Pro, Normal';font-variant-ligatures:normal;font-variant-caps:normal;font-variant-numeric:normal;font-feature-settings:normal;text-align:start;writing-mode:lr-tb;text-anchor:start;stroke-width:0.26458332"
         id="path5203"
         inkscape:connector-curvature="0" />
      <path
         d="m 39.67772,209.99999 q -0.8255,0 -1.259417,-0.46566 -0.433917,-0.46567 -0.433917,-1.38642 v -5.10117 h -1.756833 v -0.70908 h 2.624667 v 5.87375 q 0,0.5715 0.275166,0.8255 0.275167,0.24342 0.740834,0.24342 0.455083,0 0.963083,-0.23284 l 0.22225,0.64559 q -0.359833,0.14816 -0.656167,0.22225 -0.296333,0.0847 -0.719666,0.0847 z"
         style="font-style:normal;font-variant:normal;font-weight:normal;font-stretch:normal;font-size:10.58333302px;font-family:'Source Code Pro';-inkscape-font-specification:'Source Code Pro, Normal';font-variant-ligatures:normal;font-variant-caps:normal;font-variant-numeric:normal;font-feature-settings:normal;text-align:start;writing-mode:lr-tb;text-anchor:start;stroke-width:0.26458332"
         id="path5205"
         inkscape:connector-curvature="0" />
      <path
         d="m 45.060503,209.87299 v -4.43441 h -2.391834 v -0.70909 h 3.259667 v 5.1435 z m 0.338666,-6.223 q -0.296333,0 -0.497416,-0.17991 -0.201084,-0.1905 -0.201084,-0.49742 0,-0.30692 0.201084,-0.48683 0.201083,-0.1905 0.497416,-0.1905 0.296334,0 0.497417,0.1905 0.201083,0.17991 0.201083,0.48683 0,0.30692 -0.201083,0.49742 -0.201083,0.17991 -0.497417,0.17991 z"
         style="font-style:normal;font-variant:normal;font-weight:normal;font-stretch:normal;font-size:10.58333302px;font-family:'Source Code Pro';-inkscape-font-specification:'Source Code Pro, Normal';font-variant-ligatures:normal;font-variant-caps:normal;font-variant-numeric:normal;font-feature-settings:normal;text-align:start;writing-mode:lr-tb;text-anchor:start;stroke-width:0.26458332"
         id="path5207"
         inkscape:connector-curvature="0" />
      <path
         d="m 48.739368,209.87299 1.957917,-2.667 -1.80975,-2.4765 h 0.963083 l 0.814917,1.13242 q 0.137583,0.21167 0.28575,0.43392 0.15875,0.22225 0.3175,0.43391 h 0.04233 q 0.148167,-0.21166 0.296333,-0.4445 0.148167,-0.23283 0.28575,-0.4445 l 0.772583,-1.11125 h 0.92075 l -1.830916,2.55059 1.9685,2.59291 h -0.9525 l -0.899584,-1.18533 q -0.15875,-0.22225 -0.338666,-0.46567 -0.169333,-0.24341 -0.338667,-0.46566 h -0.04233 q -0.15875,0.23283 -0.3175,0.46566 -0.15875,0.22225 -0.3175,0.46567 l -0.846667,1.18533 z"
         style="font-style:normal;font-variant:normal;font-weight:normal;font-stretch:normal;font-size:10.58333302px;font-family:'Source Code Pro';-inkscape-font-specification:'Source Code Pro, Normal';font-variant-ligatures:normal;font-variant-caps:normal;font-variant-numeric:normal;font-feature-settings:normal;text-align:start;writing-mode:lr-tb;text-anchor:start;stroke-width:0.26458332"
         id="path5209"
         inkscape:connector-curvature="0" />
      <path
         d="m 58.577733,209.99999 q -0.560917,0 -0.941917,-0.14816 -0.381,-0.15875 -0.613833,-0.43392 -0.232833,-0.28575 -0.338667,-0.67733 -0.09525,-0.39159 -0.09525,-0.86784 v -2.43416 H 55.13815 v -0.65617 l 1.481666,-0.0529 0.116417,-1.651 H 57.4559 v 1.651 h 2.529416 v 0.70909 H 57.4559 v 2.44475 q 0,0.34925 0.0635,0.61383 0.0635,0.254 0.211666,0.43392 0.148167,0.17991 0.402167,0.27516 0.254,0.0847 0.624417,0.0847 0.370416,0 0.66675,-0.0635 0.296333,-0.0635 0.5715,-0.16933 l 0.1905,0.635 q -0.34925,0.127 -0.740834,0.21166 -0.381,0.0952 -0.867833,0.0952 z"
         style="font-style:normal;font-variant:normal;font-weight:normal;font-stretch:normal;font-size:10.58333302px;font-family:'Source Code Pro';-inkscape-font-specification:'Source Code Pro, Normal';font-variant-ligatures:normal;font-variant-caps:normal;font-variant-numeric:normal;font-feature-settings:normal;text-align:start;writing-mode:lr-tb;text-anchor:start;stroke-width:0.26458332"
         id="path5211"
         inkscape:connector-curvature="0" />
      <path
         d="m 63.928767,209.99999 q -0.508,0 -0.973667,-0.17991 -0.455083,-0.17992 -0.804333,-0.51859 -0.34925,-0.34925 -0.560917,-0.84666 -0.201083,-0.508 -0.201083,-1.143 0,-0.64559 0.201083,-1.143 0.211667,-0.508 0.560917,-0.85725 0.34925,-0.34925 0.804333,-0.52917 0.465667,-0.17992 0.973667,-0.17992 0.508,0 0.963083,0.17992 0.465667,0.17992 0.814917,0.52917 0.34925,0.34925 0.550333,0.85725 0.211667,0.49741 0.211667,1.143 0,0.635 -0.211667,1.143 -0.201083,0.49741 -0.550333,0.84666 -0.34925,0.33867 -0.814917,0.51859 -0.455083,0.17991 -0.963083,0.17991 z m 0,-0.71966 q 0.370417,0 0.66675,-0.13759 0.306917,-0.14816 0.518583,-0.40216 0.22225,-0.26459 0.338667,-0.62442 0.116417,-0.35983 0.116417,-0.80433 0,-0.4445 -0.116417,-0.80434 -0.116417,-0.37041 -0.338667,-0.635 -0.211666,-0.26458 -0.518583,-0.40216 -0.296333,-0.14817 -0.66675,-0.14817 -0.370417,0 -0.677333,0.14817 -0.296334,0.13758 -0.518584,0.40216 -0.211666,0.26459 -0.328083,0.635 -0.116417,0.35984 -0.116417,0.80434 0,0.4445 0.116417,0.80433 0.116417,0.35983 0.328083,0.62442 0.22225,0.254 0.518584,0.40216 0.306916,0.13759 0.677333,0.13759 z"
         style="font-style:normal;font-variant:normal;font-weight:normal;font-stretch:normal;font-size:10.58333302px;font-family:'Source Code Pro';-inkscape-font-specification:'Source Code Pro, Normal';font-variant-ligatures:normal;font-variant-caps:normal;font-variant-numeric:normal;font-feature-settings:normal;text-align:start;writing-mode:lr-tb;text-anchor:start;stroke-width:0.26458332"
         id="path5213"
         inkscape:connector-curvature="0" />
    </g>
  </g>
</svg>
